<svg width="88" height="28" viewBox="0 0 88 28" fill="none" xmlns="http://www.w3.org/2000/svg">
<path d="M21.7571 23.882C19.8581 23.882 18.4011 23.442 17.3841 22.56C16.3671 21.679 15.8131 20.424 15.7231 18.797C15.7042 18.4583 15.6965 18.1192 15.7001 17.78C15.7001 17.298 15.7081 16.96 15.7231 16.763C15.8131 15.166 16.3821 13.919 17.4291 13.023C18.4761 12.126 19.9191 11.678 21.7571 11.678C23.5951 11.678 25.0371 12.126 26.0851 13.023C27.1321 13.919 27.7011 15.166 27.7911 16.763C27.8211 17.155 27.8361 17.493 27.8361 17.78C27.8361 18.066 27.8211 18.405 27.7911 18.797C27.7011 20.424 27.1471 21.679 26.1301 22.56C25.1131 23.442 23.6551 23.882 21.7571 23.882V23.882ZM21.7571 21.035C22.3751 21.035 22.8341 20.843 23.1351 20.458C23.4371 20.074 23.6101 19.483 23.6551 18.684C23.6701 18.534 23.6781 18.232 23.6781 17.78C23.6781 17.328 23.6701 17.027 23.6551 16.876C23.6101 16.093 23.4371 15.506 23.1351 15.113C22.8351 14.722 22.3751 14.526 21.7571 14.526C21.1391 14.526 20.6801 14.722 20.3781 15.113C20.0771 15.505 19.9041 16.093 19.8581 16.876L19.8361 17.78L19.8581 18.684C19.9041 19.483 20.0771 20.074 20.3781 20.458C20.6801 20.843 21.1391 21.035 21.7571 21.035V21.035ZM30.5481 10.277C30.472 10.2794 30.3963 10.2655 30.3261 10.2362C30.2559 10.2068 30.1928 10.1628 30.1411 10.107C30.0356 9.99377 29.9789 9.84366 29.9831 9.689V7.588C29.9831 7.422 30.0401 7.283 30.1531 7.17C30.2038 7.11621 30.265 7.07339 30.333 7.04415C30.4009 7.01491 30.4741 6.99989 30.5481 7H33.3731C33.5391 7 33.6781 7.056 33.7911 7.17C33.9041 7.283 33.9611 7.422 33.9611 7.588V9.689C33.9628 9.76659 33.9486 9.84371 33.9194 9.91561C33.8901 9.9875 33.8464 10.0526 33.7911 10.107C33.7367 10.1624 33.6716 10.2061 33.5997 10.2353C33.5278 10.2645 33.4507 10.2787 33.3731 10.277H30.5481V10.277ZM30.5481 23.657C30.4741 23.6571 30.4009 23.6421 30.333 23.6129C30.265 23.5836 30.2038 23.5408 30.1531 23.487C30.0991 23.4361 30.0562 23.3747 30.027 23.3066C29.9978 23.2385 29.9828 23.1651 29.9831 23.091V12.47C29.9825 12.3957 29.9968 12.3219 30.025 12.2532C30.0532 12.1844 30.0948 12.1219 30.1474 12.0693C30.1999 12.0167 30.2624 11.9751 30.3312 11.9469C30.4 11.9187 30.4737 11.9045 30.5481 11.905H33.3731C33.5277 11.9008 33.6778 11.9576 33.7911 12.063C33.9041 12.169 33.9611 12.304 33.9611 12.47V23.092C33.9635 23.1681 33.9496 23.2437 33.9202 23.3139C33.8909 23.3842 33.8469 23.4473 33.7911 23.499C33.6778 23.6044 33.5277 23.6612 33.3731 23.657H30.5481V23.657ZM37.1021 23.657C37.0281 23.6571 36.9549 23.6421 36.887 23.6129C36.819 23.5836 36.7578 23.5408 36.7071 23.487C36.6532 23.4361 36.6103 23.3747 36.581 23.3066C36.5518 23.2385 36.5368 23.1651 36.5371 23.091V12.47C36.5365 12.3957 36.5508 12.3219 36.579 12.2532C36.6072 12.1844 36.6488 12.1219 36.7014 12.0693C36.7539 12.0167 36.8164 11.9751 36.8852 11.9469C36.954 11.9187 37.0277 11.9045 37.1021 11.905H39.8821C39.9571 11.9022 40.0319 11.9147 40.1019 11.9419C40.1719 11.9691 40.2356 12.0103 40.2891 12.063C40.3418 12.1165 40.383 12.1802 40.4102 12.2502C40.4373 12.3201 40.4499 12.395 40.4471 12.47V13.329C40.8541 12.832 41.3771 12.433 42.0171 12.131C42.6581 11.83 43.3931 11.679 44.2211 11.679C45.0801 11.679 45.8451 11.875 46.5151 12.267C47.1851 12.659 47.7131 13.239 48.0971 14.007C48.4811 14.775 48.6731 15.702 48.6731 16.787V23.092C48.6736 23.1663 48.6593 23.2401 48.6311 23.3088C48.6029 23.3776 48.5613 23.4401 48.5088 23.4927C48.4562 23.5453 48.3937 23.5869 48.3249 23.6151C48.2561 23.6433 48.1824 23.6575 48.1081 23.657H45.1031C44.9481 23.6614 44.7975 23.6047 44.6841 23.499C44.6284 23.4472 44.5846 23.384 44.5554 23.3138C44.5263 23.2436 44.5125 23.168 44.5151 23.092V16.922C44.5151 16.244 44.3531 15.725 44.0291 15.363C43.7051 15.001 43.2341 14.821 42.6171 14.821C42.0141 14.821 41.5391 15.005 41.1931 15.374C40.8461 15.744 40.6731 16.259 40.6731 16.922V23.092C40.6736 23.1663 40.6593 23.2401 40.6311 23.3088C40.6029 23.3776 40.5613 23.4401 40.5088 23.4927C40.4562 23.5453 40.3937 23.5869 40.3249 23.6151C40.2561 23.6433 40.1824 23.6575 40.1081 23.657H37.1021V23.657ZM51.7241 27.95C51.5694 27.9542 51.4193 27.8974 51.3061 27.792C51.2503 27.7403 51.2062 27.6772 51.1769 27.6069C51.1476 27.5367 51.1336 27.4611 51.1361 27.385V12.47C51.1361 12.304 51.1931 12.169 51.3061 12.063C51.4193 11.9576 51.5694 11.9008 51.7241 11.905H54.4141C54.4891 11.9022 54.5639 11.9147 54.6339 11.9419C54.7039 11.9691 54.7676 12.0103 54.8211 12.063C54.8738 12.1165 54.915 12.1802 54.9422 12.2502C54.9693 12.3201 54.9819 12.395 54.9791 12.47V13.284C55.7921 12.214 56.9601 11.679 58.4821 11.679C59.9431 11.679 61.0921 12.135 61.9281 13.046C62.7651 13.958 63.2131 15.258 63.2731 16.945C63.2881 17.141 63.2961 17.42 63.2961 17.781C63.2961 18.143 63.2881 18.429 63.2731 18.64C63.2131 20.267 62.7611 21.548 61.9171 22.482C61.0731 23.416 59.9281 23.883 58.4821 23.883C57.0201 23.883 55.9281 23.386 55.2051 22.392V27.386C55.2079 27.461 55.1953 27.5359 55.1682 27.6058C55.141 27.6758 55.0998 27.7395 55.0471 27.793C54.9936 27.8457 54.9299 27.8869 54.8599 27.9141C54.7899 27.9413 54.7151 27.9538 54.6401 27.951H51.7241V27.95ZM57.1711 20.74C57.8491 20.74 58.3351 20.541 58.6291 20.142C58.9231 19.742 59.0921 19.189 59.1371 18.481C59.1521 18.331 59.1601 18.097 59.1601 17.781C59.1601 17.464 59.1521 17.231 59.1371 17.08C59.0921 16.371 58.9231 15.818 58.6291 15.419C58.3351 15.019 57.8491 14.819 57.1711 14.819C56.5231 14.819 56.0411 15.027 55.7251 15.441C55.4081 15.855 55.2351 16.379 55.2051 17.011C55.1872 17.2973 55.1795 17.5842 55.1821 17.871C55.1821 18.232 55.1901 18.511 55.2051 18.707C55.2351 19.294 55.4121 19.78 55.7351 20.164C56.0601 20.549 56.5381 20.741 57.1711 20.741V20.74ZM66.0311 23.656C65.9569 23.6562 65.8835 23.6413 65.8154 23.612C65.7473 23.5828 65.6859 23.5399 65.6351 23.486C65.5813 23.4352 65.5384 23.374 65.5092 23.3061C65.48 23.2382 65.4649 23.165 65.4651 23.091V12.491C65.4611 12.3367 65.5179 12.187 65.6231 12.074C65.6748 12.0182 65.7379 11.9742 65.8081 11.9448C65.8783 11.9155 65.954 11.9016 66.0301 11.904H68.7871C68.9531 11.904 69.0921 11.961 69.2051 12.074C69.3191 12.187 69.3751 12.326 69.3751 12.492V13.351C69.7861 12.8915 70.2908 12.5253 70.8551 12.277C71.4511 12.0221 72.0939 11.895 72.7421 11.904H73.7591C73.8341 11.9012 73.9089 11.9137 73.9789 11.9409C74.0489 11.9681 74.1126 12.0093 74.1661 12.062C74.2188 12.1155 74.26 12.1792 74.2872 12.2492C74.3143 12.3191 74.3269 12.394 74.3241 12.469V14.933C74.3246 15.0073 74.3103 15.0811 74.2821 15.1498C74.2539 15.2186 74.2123 15.2811 74.1598 15.3337C74.1072 15.3863 74.0447 15.4279 73.9759 15.4561C73.9071 15.4843 73.8334 15.4985 73.7591 15.498H71.4771C70.8741 15.498 70.4111 15.663 70.0871 15.995C69.7631 16.326 69.6011 16.793 69.6011 17.396V23.091C69.6035 23.1671 69.5895 23.2427 69.5602 23.3129C69.5309 23.3832 69.4869 23.4463 69.4311 23.498C69.3178 23.6034 69.1677 23.6602 69.0131 23.656H66.0301H66.0311ZM81.4431 23.882C79.5451 23.882 78.0871 23.442 77.0701 22.56C76.0531 21.679 75.5001 20.424 75.4101 18.797C75.3912 18.4583 75.3835 18.1192 75.3871 17.78C75.3871 17.298 75.3941 16.96 75.4091 16.763C75.4991 15.166 76.0691 13.919 77.1151 13.023C78.1631 12.126 79.6051 11.678 81.4431 11.678C83.2821 11.678 84.7241 12.126 85.7711 13.023C86.8181 13.919 87.3871 15.166 87.4781 16.763C87.5081 17.155 87.5231 17.493 87.5231 17.78C87.5231 18.066 87.5081 18.405 87.4781 18.797C87.3881 20.424 86.8341 21.679 85.8171 22.56C84.7991 23.442 83.3421 23.882 81.4431 23.882V23.882ZM81.4431 21.035C82.0611 21.035 82.5211 20.843 82.8221 20.458C83.1231 20.074 83.2971 19.483 83.3421 18.684C83.3571 18.534 83.3641 18.232 83.3641 17.78C83.3641 17.328 83.3571 17.027 83.3421 16.876C83.2971 16.093 83.1231 15.506 82.8221 15.113C82.5211 14.722 82.0621 14.526 81.4431 14.526C80.8261 14.526 80.3661 14.722 80.0651 15.113C79.7631 15.505 79.5901 16.093 79.5451 16.876L79.5221 17.78L79.5451 18.684C79.5901 19.483 79.7631 20.074 80.0651 20.458C80.3661 20.843 80.8251 21.035 81.4431 21.035V21.035Z" fill="#ffffff"/>
<path d="M13.4699 11.6161L13.4729 17.9041C13.4729 19.1941 13.1879 20.2971 12.6189 21.2141C12.0499 22.1321 11.2539 22.8231 10.2289 23.2851C9.20588 23.7481 8.02588 23.9791 6.69088 23.9791C5.50788 23.9791 4.41588 23.7791 3.41488 23.3761C2.41288 22.9741 1.60488 22.3761 0.990875 21.5791C0.376875 20.7821 0.061875 19.8301 0.046875 18.7231C0.046875 18.5861 0.091875 18.4691 0.182875 18.3701C0.225794 18.3222 0.278595 18.2841 0.337637 18.2586C0.396679 18.233 0.460559 18.2206 0.524875 18.2221H3.77888C3.99088 18.2221 4.15787 18.2721 4.27887 18.3701C4.40087 18.4691 4.49887 18.6321 4.57487 18.8601C4.81787 19.9971 5.56087 20.5661 6.80487 20.5661C7.53287 20.5661 8.09087 20.3271 8.47787 19.8491C8.86487 19.3711 9.05787 18.6771 9.05787 17.7671L9.04387 11.6871C9.0416 11.3823 8.96589 11.0826 8.82314 10.8133C8.6804 10.544 8.47484 10.3131 8.22388 10.1401L2.71588 6.1971C2.50907 6.05465 2.36722 5.83598 2.32148 5.58906C2.27573 5.34215 2.32982 5.08717 2.47187 4.8801L3.89688 2.8031C3.96726 2.7004 4.05718 2.61257 4.16151 2.54462C4.26584 2.47668 4.38253 2.42995 4.50492 2.4071C4.62731 2.38426 4.753 2.38575 4.87482 2.41148C4.99663 2.43722 5.11218 2.4867 5.21488 2.5571L11.4819 7.0031C12.0949 7.42358 12.5963 7.98705 12.9426 8.64479C13.289 9.30252 13.47 10.0347 13.4699 10.7781V11.6161V11.6161ZM13.6149 5.7371C12.8605 5.7371 12.137 5.43741 11.6035 4.90396C11.0701 4.37051 10.7704 3.647 10.7704 2.8926C10.7704 2.13819 11.0701 1.41468 11.6035 0.88123C12.137 0.347783 12.8605 0.0480957 13.6149 0.0480957C14.3693 0.0480957 15.0928 0.347783 15.6262 0.88123C16.1597 1.41468 16.4594 2.13819 16.4594 2.8926C16.4594 3.647 16.1597 4.37051 15.6262 4.90396C15.0928 5.43741 14.3693 5.7371 13.6149 5.7371V5.7371Z" fill="#72BD77"/>
</svg>
