<svg width="187" height="32" viewBox="0 0 187 32" fill="none" xmlns="http://www.w3.org/2000/svg">
<path d="M27.6068 9.53674e-07L32 4.39322L20.3932 16L16 11.6068L27.6068 9.53674e-07Z" fill="white"/>
<path d="M4.39321 32L0 27.6068L11.6068 16L16 20.3932L4.39321 32Z" fill="white"/>
<path d="M0 4.39322L4.39321 9.53674e-07L16 11.6068L11.6068 16L0 4.39322Z" fill="white"/>
<path d="M32 27.6068L27.6068 32L16 20.3932L20.3932 16L32 27.6068Z" fill="white"/>
<path d="M59.5922 14.3535C59.4872 14.3535 59.3939 14.3185 59.3123 14.2485C59.2423 14.1669 59.2073 14.0736 59.2073 13.9687V13.8462C59.2073 13.648 59.1374 13.4847 58.9974 13.3564C58.8691 13.2165 58.7058 13.1465 58.5076 13.1465H55.0964C54.8981 13.1465 54.7348 13.2165 54.6065 13.3564C54.4782 13.4847 54.4141 13.648 54.4141 13.8462V19.6538C54.4141 19.852 54.4782 20.0211 54.6065 20.1611C54.7348 20.2894 54.8981 20.3535 55.0964 20.3535H58.5076C58.7058 20.3535 58.8691 20.2894 58.9974 20.1611C59.1374 20.0211 59.2073 19.852 59.2073 19.6538V19.5313C59.2073 19.4264 59.2423 19.3389 59.3123 19.2689C59.3939 19.1873 59.4872 19.1465 59.5922 19.1465H61.2191C61.324 19.1465 61.4115 19.1873 61.4815 19.2689C61.5631 19.3389 61.6039 19.4264 61.6039 19.5313V19.6538C61.6039 20.0853 61.5223 20.4876 61.359 20.8608C61.1958 21.234 60.9742 21.5605 60.6943 21.8404C60.4144 22.1203 60.0878 22.3418 59.7146 22.5051C59.3414 22.6684 58.9391 22.75 58.5076 22.75H55.0964C54.6765 22.75 54.2742 22.6684 53.8893 22.5051C53.5161 22.3418 53.1896 22.1203 52.9097 21.8404C52.6298 21.5605 52.4082 21.234 52.2449 20.8608C52.0816 20.4876 52 20.0853 52 19.6538V13.8462C52 13.4147 52.0816 13.0124 52.2449 12.6392C52.4082 12.266 52.6298 11.9395 52.9097 11.6596C53.1896 11.3797 53.5161 11.1582 53.8893 10.9949C54.2742 10.8316 54.6765 10.75 55.0964 10.75H58.5076C58.9391 10.75 59.3414 10.8316 59.7146 10.9949C60.0878 11.1582 60.4144 11.3797 60.6943 11.6596C60.9742 11.9395 61.1958 12.266 61.359 12.6392C61.5223 13.0124 61.6039 13.4147 61.6039 13.8462V13.9687C61.6039 14.0736 61.5631 14.1669 61.4815 14.2485C61.4115 14.3185 61.324 14.3535 61.2191 14.3535H59.5922Z" fill="white"/>
<path d="M77.1253 22.4001C77.172 22.4934 77.172 22.5751 77.1253 22.645C77.0787 22.715 77.0029 22.75 76.8979 22.75H75.0261C74.9211 22.75 74.8162 22.715 74.7112 22.645C74.6179 22.5751 74.5479 22.4934 74.5013 22.4001L72.4895 17.957H70.1104V22.3652C70.1104 22.4701 70.0696 22.5634 69.988 22.645C69.918 22.715 69.8305 22.75 69.7256 22.75H68.0812C67.9762 22.75 67.8829 22.715 67.8013 22.645C67.7313 22.5634 67.6963 22.4701 67.6963 22.3652V11.1348C67.6963 11.0299 67.7313 10.9424 67.8013 10.8724C67.8829 10.7908 67.9762 10.75 68.0812 10.75H74.2039C74.6354 10.75 75.0378 10.8316 75.411 10.9949C75.7842 11.1582 76.1107 11.3797 76.3906 11.6596C76.6705 11.9395 76.8921 12.266 77.0554 12.6392C77.2186 13.0124 77.3003 13.4147 77.3003 13.8462V14.8608C77.3003 15.2106 77.2419 15.5488 77.1253 15.8754C77.0204 16.1902 76.8688 16.4818 76.6705 16.75C76.4722 17.0066 76.2332 17.2281 75.9533 17.4147C75.685 17.6013 75.3876 17.7413 75.0611 17.8345L77.1253 22.4001ZM74.2039 15.5605C74.4022 15.5605 74.5654 15.4964 74.6937 15.3681C74.8337 15.2281 74.9037 15.059 74.9037 14.8608V13.8462C74.9037 13.648 74.8337 13.4847 74.6937 13.3564C74.5654 13.2165 74.4022 13.1465 74.2039 13.1465H70.1104V15.5605H74.2039Z" fill="white"/>
<path d="M89.9002 10.7675C90.3317 10.7675 90.7341 10.8491 91.1073 11.0124C91.4805 11.1757 91.807 11.3972 92.0869 11.6771C92.3668 11.957 92.5884 12.2835 92.7517 12.6567C92.9149 13.0299 92.9966 13.4264 92.9966 13.8462V19.6713C92.9966 20.0911 92.9149 20.4876 92.7517 20.8608C92.5884 21.234 92.3668 21.5605 92.0869 21.8404C91.807 22.1203 91.4805 22.3418 91.1073 22.5051C90.7341 22.6684 90.3317 22.75 89.9002 22.75H86.489C86.0575 22.75 85.6551 22.6684 85.2819 22.5051C84.9087 22.3418 84.5822 22.1203 84.3023 21.8404C84.0224 21.5605 83.8008 21.234 83.6376 20.8608C83.4743 20.4876 83.3926 20.0911 83.3926 19.6713V13.8462C83.3926 13.4264 83.4743 13.0299 83.6376 12.6567C83.8008 12.2835 84.0224 11.957 84.3023 11.6771C84.5822 11.3972 84.9087 11.1757 85.2819 11.0124C85.6551 10.8491 86.0575 10.7675 86.489 10.7675H89.9002ZM90.6 13.8462C90.6 13.648 90.53 13.4847 90.39 13.3564C90.2618 13.2281 90.0985 13.164 89.9002 13.164H86.489C86.2907 13.164 86.1216 13.2281 85.9817 13.3564C85.8534 13.4847 85.7893 13.648 85.7893 13.8462V19.6713C85.7893 19.8695 85.8534 20.0328 85.9817 20.1611C86.1216 20.2894 86.2907 20.3535 86.489 20.3535H89.9002C90.0985 20.3535 90.2618 20.2894 90.39 20.1611C90.53 20.0328 90.6 19.8695 90.6 19.6713V13.8462Z" fill="white"/>
<path d="M106.664 14.3535C106.559 14.3535 106.465 14.3185 106.384 14.2485C106.314 14.1669 106.279 14.0736 106.279 13.9687V13.8462C106.279 13.648 106.215 13.4847 106.086 13.3564C105.958 13.2165 105.795 13.1465 105.597 13.1465H102.168C101.981 13.1465 101.818 13.2165 101.678 13.3564C101.55 13.4847 101.486 13.648 101.486 13.8462V14.8608C101.486 15.059 101.55 15.2281 101.678 15.3681C101.818 15.4964 101.981 15.5605 102.168 15.5605H105.597C106.016 15.5605 106.413 15.6421 106.786 15.8054C107.159 15.9687 107.486 16.1902 107.766 16.4701C108.046 16.75 108.267 17.0765 108.431 17.4497C108.594 17.8229 108.675 18.2194 108.675 18.6392V19.6538C108.675 20.0853 108.594 20.4876 108.431 20.8608C108.267 21.234 108.046 21.5605 107.766 21.8404C107.486 22.1203 107.159 22.3418 106.786 22.5051C106.413 22.6684 106.016 22.75 105.597 22.75H102.168C101.748 22.75 101.351 22.6684 100.978 22.5051C100.605 22.3418 100.279 22.1203 99.9986 21.8404C99.7187 21.5605 99.4972 21.234 99.3339 20.8608C99.1706 20.4876 99.089 20.0853 99.089 19.6538V19.5313C99.089 19.4264 99.124 19.3389 99.1939 19.2689C99.2756 19.1873 99.3689 19.1465 99.4738 19.1465H101.101C101.206 19.1465 101.293 19.1873 101.363 19.2689C101.445 19.3389 101.486 19.4264 101.486 19.5313V19.6538C101.486 19.852 101.55 20.0211 101.678 20.1611C101.818 20.2894 101.981 20.3535 102.168 20.3535H105.597C105.795 20.3535 105.958 20.2894 106.086 20.1611C106.215 20.0211 106.279 19.852 106.279 19.6538V18.6392C106.279 18.441 106.215 18.2777 106.086 18.1494C105.958 18.0211 105.795 17.957 105.597 17.957H102.168C101.748 17.957 101.351 17.8754 100.978 17.7121C100.605 17.5488 100.279 17.3273 99.9986 17.0474C99.7187 16.7675 99.4972 16.441 99.3339 16.0678C99.1706 15.6829 99.089 15.2806 99.089 14.8608V13.8462C99.089 13.4147 99.1706 13.0124 99.3339 12.6392C99.4972 12.266 99.7187 11.9395 99.9986 11.6596C100.279 11.3797 100.605 11.1582 100.978 10.9949C101.351 10.8316 101.748 10.75 102.168 10.75H105.597C106.016 10.75 106.413 10.8316 106.786 10.9949C107.159 11.1582 107.486 11.3797 107.766 11.6596C108.046 11.9395 108.267 12.266 108.431 12.6392C108.594 13.0124 108.675 13.4147 108.675 13.8462V13.9687C108.675 14.0736 108.64 14.1669 108.57 14.2485C108.5 14.3185 108.413 14.3535 108.308 14.3535H106.664Z" fill="white"/>
<path d="M122.36 14.3535C122.255 14.3535 122.162 14.3185 122.08 14.2485C122.01 14.1669 121.975 14.0736 121.975 13.9687V13.8462C121.975 13.648 121.911 13.4847 121.783 13.3564C121.654 13.2165 121.491 13.1465 121.293 13.1465H117.864C117.678 13.1465 117.514 13.2165 117.374 13.3564C117.246 13.4847 117.182 13.648 117.182 13.8462V14.8608C117.182 15.059 117.246 15.2281 117.374 15.3681C117.514 15.4964 117.678 15.5605 117.864 15.5605H121.293C121.713 15.5605 122.109 15.6421 122.482 15.8054C122.856 15.9687 123.182 16.1902 123.462 16.4701C123.742 16.75 123.964 17.0765 124.127 17.4497C124.29 17.8229 124.372 18.2194 124.372 18.6392V19.6538C124.372 20.0853 124.29 20.4876 124.127 20.8608C123.964 21.234 123.742 21.5605 123.462 21.8404C123.182 22.1203 122.856 22.3418 122.482 22.5051C122.109 22.6684 121.713 22.75 121.293 22.75H117.864C117.444 22.75 117.048 22.6684 116.675 22.5051C116.301 22.3418 115.975 22.1203 115.695 21.8404C115.415 21.5605 115.193 21.234 115.03 20.8608C114.867 20.4876 114.785 20.0853 114.785 19.6538V19.5313C114.785 19.4264 114.82 19.3389 114.89 19.2689C114.972 19.1873 115.065 19.1465 115.17 19.1465H116.797C116.902 19.1465 116.989 19.1873 117.059 19.2689C117.141 19.3389 117.182 19.4264 117.182 19.5313V19.6538C117.182 19.852 117.246 20.0211 117.374 20.1611C117.514 20.2894 117.678 20.3535 117.864 20.3535H121.293C121.491 20.3535 121.654 20.2894 121.783 20.1611C121.911 20.0211 121.975 19.852 121.975 19.6538V18.6392C121.975 18.441 121.911 18.2777 121.783 18.1494C121.654 18.0211 121.491 17.957 121.293 17.957H117.864C117.444 17.957 117.048 17.8754 116.675 17.7121C116.301 17.5488 115.975 17.3273 115.695 17.0474C115.415 16.7675 115.193 16.441 115.03 16.0678C114.867 15.6829 114.785 15.2806 114.785 14.8608V13.8462C114.785 13.4147 114.867 13.0124 115.03 12.6392C115.193 12.266 115.415 11.9395 115.695 11.6596C115.975 11.3797 116.301 11.1582 116.675 10.9949C117.048 10.8316 117.444 10.75 117.864 10.75H121.293C121.713 10.75 122.109 10.8316 122.482 10.9949C122.856 11.1582 123.182 11.3797 123.462 11.6596C123.742 11.9395 123.964 12.266 124.127 12.6392C124.29 13.0124 124.372 13.4147 124.372 13.8462V13.9687C124.372 14.0736 124.337 14.1669 124.267 14.2485C124.197 14.3185 124.109 14.3535 124.004 14.3535H122.36Z" fill="white"/>
<path d="M136.989 10.75C137.409 10.75 137.806 10.8316 138.179 10.9949C138.552 11.1582 138.879 11.3797 139.158 11.6596C139.438 11.9395 139.66 12.266 139.823 12.6392C139.986 13.0124 140.068 13.4147 140.068 13.8462V14.8608C140.068 15.2223 140.01 15.5605 139.893 15.8754C139.777 16.1902 139.619 16.4818 139.421 16.75C139.619 17.0182 139.777 17.3098 139.893 17.6246C140.01 17.9395 140.068 18.2777 140.068 18.6392V19.6538C140.068 20.0853 139.986 20.4876 139.823 20.8608C139.66 21.234 139.438 21.5605 139.158 21.8404C138.879 22.1203 138.552 22.3418 138.179 22.5051C137.806 22.6684 137.409 22.75 136.989 22.75H130.849C130.744 22.75 130.657 22.715 130.587 22.645C130.517 22.5634 130.482 22.4701 130.482 22.3652V11.1348C130.482 11.0299 130.517 10.9424 130.587 10.8724C130.657 10.7908 130.744 10.75 130.849 10.75H136.989ZM132.878 15.543H136.989C137.176 15.543 137.333 15.4789 137.462 15.3506C137.601 15.2223 137.671 15.059 137.671 14.8608V13.8462C137.671 13.648 137.601 13.4847 137.462 13.3564C137.333 13.2165 137.176 13.1465 136.989 13.1465H132.878V15.543ZM137.671 18.6392C137.671 18.441 137.601 18.2777 137.462 18.1494C137.333 18.0211 137.176 17.957 136.989 17.957H132.878V20.3535H136.989C137.176 20.3535 137.333 20.2894 137.462 20.1611C137.601 20.0211 137.671 19.852 137.671 19.6538V18.6392Z" fill="white"/>
<path d="M152.598 10.75C152.703 10.75 152.803 10.785 152.896 10.855C153.001 10.9249 153.071 11.0066 153.106 11.0999L155.625 17.3622C155.66 17.4555 155.689 17.578 155.712 17.7296C155.747 17.8695 155.765 17.992 155.765 18.0969V22.3652C155.765 22.4701 155.724 22.5634 155.642 22.645C155.572 22.715 155.485 22.75 155.38 22.75H153.736C153.631 22.75 153.537 22.715 153.456 22.645C153.386 22.5634 153.351 22.4701 153.351 22.3652V20.3535H148.557V22.3652C148.557 22.4701 148.517 22.5634 148.435 22.645C148.365 22.715 148.278 22.75 148.173 22.75H146.546C146.441 22.75 146.347 22.715 146.266 22.645C146.196 22.5634 146.161 22.4701 146.161 22.3652V18.0969C146.161 17.992 146.173 17.8695 146.196 17.7296C146.231 17.578 146.266 17.4555 146.301 17.3622L148.802 11.0999C148.849 11.0066 148.919 10.9249 149.012 10.855C149.117 10.785 149.222 10.75 149.327 10.75H152.598ZM148.645 17.957H153.263L151.339 13.1465H150.569L148.645 17.957Z" fill="white"/>
<path d="M170.936 22.75H162.749C162.644 22.75 162.551 22.715 162.469 22.645C162.399 22.5634 162.365 22.4701 162.365 22.3652V11.1348C162.365 11.0299 162.399 10.9424 162.469 10.8724C162.551 10.7908 162.644 10.75 162.749 10.75H164.376C164.481 10.75 164.569 10.7908 164.639 10.8724C164.72 10.9424 164.761 11.0299 164.761 11.1348V20.3535H170.936C171.041 20.3535 171.129 20.3943 171.199 20.4759C171.269 20.5459 171.304 20.6334 171.304 20.7383V22.3652C171.304 22.4701 171.269 22.5634 171.199 22.645C171.129 22.715 171.041 22.75 170.936 22.75Z" fill="white"/>
<path d="M186.633 22.75H178.446C178.341 22.75 178.247 22.715 178.166 22.645C178.096 22.5634 178.061 22.4701 178.061 22.3652V11.1348C178.061 11.0299 178.096 10.9424 178.166 10.8724C178.247 10.7908 178.341 10.75 178.446 10.75H180.073C180.178 10.75 180.265 10.7908 180.335 10.8724C180.417 10.9424 180.457 11.0299 180.457 11.1348V20.3535H186.633C186.738 20.3535 186.825 20.3943 186.895 20.4759C186.965 20.5459 187 20.6334 187 20.7383V22.3652C187 22.4701 186.965 22.5634 186.895 22.645C186.825 22.715 186.738 22.75 186.633 22.75Z" fill="white"/>
</svg>
